{"cinemas":[{"id":24198,"mark":0,"nm":"太平洋影城（叙永店）","sellPrice":"","addr":"叙永县十字口时代百货四楼","distance":"800m","tag":{"allowRefund":1,"buyout":0,"cityCardTag":0,"deal":0,"endorse":1,"giftTag":"","hallType":[],"hallTypeVOList":[],"sell":1,"snack":1,"vipTag":"折扣卡"},"promotion":{"cardPromotionTag":"","couponPromotionTag":"","merchantActivityTag":"","packShowActivityTag":"","platformActivityTag":"","starActivityTag":""},"showTimes":""},{"id":2600,"mark":0,"nm":"大世界电影城（叙永店）","sellPrice":"","addr":"叙永县永宁新区鱼凫古街4号楼3楼","distance":"1.2km","tag":{"allowRefund":1,"buyout":0,"cityCardTag":0,"deal":0,"endorse":1,"giftTag":"","hallType":[],"hallTypeVOList":[],"sell":1,"snack":0,"vipTag":"折扣卡"},"promotion":{"cardPromotionTag":"","couponPromotionTag":"","merchantActivityTag":"","packShowActivityTag":"","platformActivityTag":"","starActivityTag":""},"showTimes":""},{"id":27468,"mark":0,"nm":"中影蔺郎国际杜比全景声巨幕影城（古蔺店）","sellPrice":"","addr":"古蔺县蔺郎国际城10-2-6号","distance":"34.7km","tag":{"allowRefund":0,"buyout":0,"cityCardTag":0,"deal":0,"endorse":0,"giftTag":"","hallType":["杜比全景声厅","巨幕厅"],"hallTypeVOList":[{"name":"杜比全景声厅","url":""},{"name":"巨幕厅","url":""}],"sell":1,"snack":1,"vipTag":""},"promotion":{"cardPromotionTag":"","couponPromotionTag":"","merchantActivityTag":"","packShowActivityTag":"","platformActivityTag":"","starActivityTag":""},"showTimes":""},{"id":27694,"mark":0,"nm":"中影星美激光巨幕影城（古蔺店）","sellPrice":"","addr":"古蔺县四川省泸州市古蔺天成名都新时代广场二层","distance":"35.3km","tag":{"allowRefund":1,"buyout":0,"cityCardTag":0,"deal":0,"endorse":1,"giftTag":"","hallType":["巨幕厅"],"hallTypeVOList":[{"name":"巨幕厅","url":""}],"sell":1,"snack":0,"vipTag":""},"promotion":{"cardPromotionTag":"","couponPromotionTag":"","merchantActivityTag":"","packShowActivityTag":"","platformActivityTag":"","starActivityTag":""},"showTimes":""},{"id":2571,"mark":0,"nm":"大影易影城（古蔺店）","sellPrice":"","addr":"古蔺县新体育中心郊野运动公园2栋F1","distance":"40km","tag":{"allowRefund":1,"buyout":0,"cityCardTag":0,"deal":0,"endorse":1,"giftTag":"","hallType":[],"hallTypeVOList":[],"sell":1,"snack":1,"vipTag":"折扣卡"},"promotion":{"cardPromotionTag":"开卡特惠，首单2张最高立减6元","couponPromotionTag":"","merchantActivityTag":"","packShowActivityTag":"","platformActivityTag":"","starActivityTag":""},"showTimes":""},{"id":24961,"mark":0,"nm":"太平洋影城（纳溪店）","sellPrice":"","addr":"纳溪区云溪东路1段208号","distance":"67.7km","tag":{"allowRefund":1,"buyout":0,"cityCardTag":0,"deal":0,"endorse":1,"giftTag":"","hallType":[],"hallTypeVOList":[],"sell":1,"snack":1,"vipTag":"折扣卡"},"promotion":{"cardPromotionTag":"开卡特惠，首单2张最高立减6元","couponPromotionTag":"","merchantActivityTag":"","packShowActivityTag":"","platformActivityTag":"","starActivityTag":""},"showTimes":""},{"id":27838,"mark":0,"nm":"金逸影城（泸州IMAX店）","sellPrice":"","addr":"江阳区蓝安大道天远广场时代天街1号楼4楼","distance":"75.3km","tag":{"allowRefund":1,"buyout":0,"cityCardTag":0,"deal":0,"endorse":0,"giftTag":"","hallType":[],"hallTypeVOList":[],"sell":1,"snack":1,"vipTag":"折扣卡"},"promotion":{"cardPromotionTag":"开卡特惠，首单2张最高立减4元","couponPromotionTag":"","merchantActivityTag":"","packShowActivityTag":"","platformActivityTag":"","starActivityTag":""},"showTimes":""},{"id":23970,"mark":0,"nm":"cmc华人影城（泸州龙驰店）","sellPrice":"","addr":"江阳区丹艳路59号城西农贸城3楼","distance":"77.7km","tag":{"allowRefund":1,"buyout":0,"cityCardTag":0,"deal":0,"endorse":1,"giftTag":"","hallType":[],"hallTypeVOList":[],"sell":1,"snack":1,"vipTag":"折扣卡"},"promotion":{"cardPromotionTag":"","couponPromotionTag":"","merchantActivityTag":"","packShowActivityTag":"","platformActivityTag":"","starActivityTag":""},"showTimes":""},{"id":13734,"mark":0,"nm":"联娱国际影城（酒城乐园店）","sellPrice":"","addr":"江阳区华阳街道江景北路6号酒城乐园生活广场","distance":"78.2km","tag":{"allowRefund":1,"buyout":0,"cityCardTag":0,"deal":0,"endorse":1,"giftTag":"","hallType":["巨幕厅"],"hallTypeVOList":[{"name":"巨幕厅","url":""}],"sell":1,"snack":0,"vipTag":"折扣卡"},"promotion":{"cardPromotionTag":"","couponPromotionTag":"","merchantActivityTag":"","packShowActivityTag":"","platformActivityTag":"","starActivityTag":""},"showTimes":""},{"id":24770,"mark":0,"nm":"cmc华人影城（摩尔店）","sellPrice":"","addr":"江阳区江阳北路25号摩尔国际广场7-11","distance":"79.8km","tag":{"allowRefund":1,"buyout":0,"cityCardTag":0,"deal":0,"endorse":1,"giftTag":"","hallType":["杜比全景声厅","DTS:X 临境音厅","巨幕厅"],"hallTypeVOList":[{"name":"杜比全景声厅","url":""},{"name":"DTS:X 临境音厅","url":""},{"name":"巨幕厅","url":""}],"sell":1,"snack":1,"vipTag":"折扣卡"},"promotion":{"cardPromotionTag":"","couponPromotionTag":"","merchantActivityTag":"","packShowActivityTag":"","platformActivityTag":"","starActivityTag":""},"showTimes":""},{"id":28572,"mark":0,"nm":"大世界影城（泸州店）","sellPrice":"","addr":"江阳区迎晖路2号商业大世界7楼","distance":"80km","tag":{"allowRefund":1,"buyout":0,"cityCardTag":0,"deal":0,"endorse":1,"giftTag":"","hallType":["杜比全景声厅"],"hallTypeVOList":[{"name":"杜比全景声厅","url":""}],"sell":1,"snack":1,"vipTag":""},"promotion":{"cardPromotionTag":"","couponPromotionTag":"","merchantActivityTag":"","packShowActivityTag":"","platformActivityTag":"","starActivityTag":""},"showTimes":""},{"id":15002,"mark":0,"nm":"维多利影城（大世界店）","sellPrice":"","addr":"江阳区迎晖路大世界负一楼","distance":"80km","tag":{"allowRefund":1,"buyout":0,"cityCardTag":0,"deal":0,"endorse":1,"giftTag":"","hallType":[],"hallTypeVOList":[],"sell":1,"snack":1,"vipTag":"折扣卡"},"promotion":{"cardPromotionTag":"","couponPromotionTag":"","merchantActivityTag":"","packShowActivityTag":"","platformActivityTag":"","starActivityTag":""},"showTimes":""},{"id":24593,"mark":0,"nm":"万达影城（步步高广场店）","sellPrice":"","addr":"龙马潭区龙南路83号步步高新天地购物中心6楼万达影城","distance":"80.2km","tag":{"allowRefund":1,"buyout":0,"cityCardTag":0,"deal":0,"endorse":1,"giftTag":"","hallType":["4D厅"],"hallTypeVOList":[{"name":"4D厅","url":""}],"sell":1,"snack":1,"vipTag":"折扣卡"},"promotion":{"cardPromotionTag":"","couponPromotionTag":"","merchantActivityTag":"","packShowActivityTag":"","platformActivityTag":"","starActivityTag":""},"showTimes":""},{"id":25869,"mark":0,"nm":"太平洋国际影城（欢乐汇店）","sellPrice":"","addr":"江阳区佳乐世纪城欢乐汇4楼","distance":"80.3km","tag":{"allowRefund":1,"buyout":0,"cityCardTag":0,"deal":0,"endorse":1,"giftTag":"","hallType":["巨幕厅"],"hallTypeVOList":[{"name":"巨幕厅","url":""}],"sell":1,"snack":1,"vipTag":"折扣卡"},"promotion":{"cardPromotionTag":"","couponPromotionTag":"","merchantActivityTag":"","packShowActivityTag":"","platformActivityTag":"","starActivityTag":""},"showTimes":""},{"id":13894,"mark":0,"nm":"CGV影城（万象汇IMAX店）","sellPrice":"","addr":"江阳区康城路一段1号华润万象汇（4层）","distance":"80.4km","tag":{"allowRefund":1,"buyout":0,"cityCardTag":0,"deal":0,"endorse":1,"giftTag":"","hallType":["IMAX厅","60帧厅"],"hallTypeVOList":[{"name":"IMAX厅","url":""},{"name":"60帧厅","url":""}],"sell":1,"snack":1,"vipTag":"折扣卡"},"promotion":{"cardPromotionTag":"","couponPromotionTag":"","merchantActivityTag":"","packShowActivityTag":"","platformActivityTag":"","starActivityTag":""},"showTimes":""},{"id":8027,"mark":0,"nm":"川源国际影城","sellPrice":"","addr":"合江县少岷北路338号川源第一城","distance":"81.1km","tag":{"allowRefund":1,"buyout":0,"cityCardTag":0,"deal":0,"endorse":1,"giftTag":"","hallType":[],"hallTypeVOList":[],"sell":1,"snack":1,"vipTag":""},"promotion":{"cardPromotionTag":"","couponPromotionTag":"","merchantActivityTag":"","packShowActivityTag":"","platformActivityTag":"","starActivityTag":""},"showTimes":""},{"id":10043,"mark":0,"nm":"联娱国际影城（国美绿洲店）","sellPrice":"","addr":"龙马潭区龙马大道二段37号国美绿洲国际小区1F（绿洲酒店旁）","distance":"81.8km","tag":{"allowRefund":1,"buyout":0,"cityCardTag":0,"deal":0,"endorse":1,"giftTag":"","hallType":[],"hallTypeVOList":[],"sell":1,"snack":1,"vipTag":"折扣卡"},"promotion":{"cardPromotionTag":"","couponPromotionTag":"","merchantActivityTag":"","packShowActivityTag":"","platformActivityTag":"","starActivityTag":""},"showTimes":""},{"id":25349,"mark":0,"nm":"万达影城（泸州万达广场店）","sellPrice":"","addr":"龙马潭区金带路与玉带路交汇处万达广场4楼万达影城","distance":"82.2km","tag":{"allowRefund":1,"buyout":0,"cityCardTag":0,"deal":0,"endorse":1,"giftTag":"","hallType":["IMAX厅","4D厅"],"hallTypeVOList":[{"name":"IMAX厅","url":""},{"name":"4D厅","url":""}],"sell":1,"snack":1,"vipTag":"折扣卡"},"promotion":{"cardPromotionTag":"","couponPromotionTag":"","merchantActivityTag":"","packShowActivityTag":"","platformActivityTag":"","starActivityTag":""},"showTimes":""},{"id":27989,"mark":0,"nm":"泸州恒大嘉凯影城","sellPrice":"","addr":"龙马潭区陶然路三段225号11栋201-301","distance":"82.8km","tag":{"allowRefund":1,"buyout":0,"cityCardTag":0,"deal":0,"endorse":0,"giftTag":"","hallType":[],"hallTypeVOList":[],"sell":1,"snack":0,"vipTag":"折扣卡"},"promotion":{"cardPromotionTag":"","couponPromotionTag":"","merchantActivityTag":"","packShowActivityTag":"","platformActivityTag":"","starActivityTag":""},"showTimes":""},{"id":17299,"mark":0,"nm":"太平洋影城（泸县店）","sellPrice":"","addr":"泸县卢泉路278号","distance":"108.8km","tag":{"allowRefund":1,"buyout":0,"cityCardTag":0,"deal":0,"endorse":1,"giftTag":"","hallType":[],"hallTypeVOList":[],"sell":1,"snack":1,"vipTag":"折扣卡"},"promotion":{"cardPromotionTag":"开卡特惠，首单2张最高立减6元","couponPromotionTag":"","merchantActivityTag":"","packShowActivityTag":"","platformActivityTag":"","starActivityTag":""},"showTimes":""}],"ct_pois":[{"ct_poi":"936879945111165696_a24198_c0","poiid":163298545},{"ct_poi":"936879945111165696_a2600_c1","poiid":1556275},{"ct_poi":"936879945111165696_a27468_c2","poiid":195858340},{"ct_poi":"936879945111165696_a27694_c3","poiid":1995099771},{"ct_poi":"936879945111165696_a2571_c4","poiid":1547212},{"ct_poi":"936879945111165696_a24961_c5","poiid":165606417},{"ct_poi":"936879945111165696_a27838_c6","poiid":1018167785},{"ct_poi":"936879945111165696_a23970_c7","poiid":160803531},{"ct_poi":"936879945111165696_a13734_c8","poiid":4779980},{"ct_poi":"936879945111165696_a24770_c9","poiid":165371556},{"ct_poi":"936879945111165696_a28572_c10","poiid":1834329605},{"ct_poi":"936879945111165696_a15002_c11","poiid":63361459},{"ct_poi":"936879945111165696_a24593_c12","poiid":164912803},{"ct_poi":"936879945111165696_a25869_c13","poiid":185182157},{"ct_poi":"936879945111165696_a13894_c14","poiid":52103614},{"ct_poi":"936879945111165696_a8027_c15","poiid":4883079},{"ct_poi":"936879945111165696_a10043_c16","poiid":4465411},{"ct_poi":"936879945111165696_a25349_c17","poiid":175478680},{"ct_poi":"936879945111165696_a27989_c18","poiid":675198183},{"ct_poi":"936879945111165696_a17299_c19","poiid":156782855}],"paging":{"hasMore":true,"limit":20,"offset":0,"total":26},"resId":"1584800908816"}